{
    "_comment": [
        "This is where all the images used in slap, kiss, hug and meme are located.", 
        "If you want to update them, make a merge request for this file."
    ],
    "kissarray": [
    "https://i.imgur.com/Wv0ZTkE.gif",
    "https://i.imgur.com/k8LZcqj.gif",
    "https://i.imgur.com/NnobY6C.gif",
    "https://i.imgur.com/hkR6hyF.gif",
    "https://i.imgur.com/SWImK6c.gif",
    "https://i.imgur.com/ypFtLy0.gif",
    "https://i.imgur.com/pquXE3p.gif",
    "https://i.imgur.com/N10u3xm.gif",
    "https://i.imgur.com/MrmzP3n.gif",
    "https://i.imgur.com/7PH6i38.gif",
    "https://i.imgur.com/rLGMByi.gif"
    ],
    "slaparray": [
    "https://i.imgur.com/N5oDbhf.gif",
    "https://i.imgur.com/4a5MVMu.gif",
    "https://i.imgur.com/BkGyzU4.gif",
    "https://i.imgur.com/Y4G4qoG.gif",
    "https://i.imgur.com/DvrcYaW.gif",
    "https://i.imgur.com/roePZMp.gif",
    "https://i.imgur.com/1aPp4Lc.gif",
    "https://i.imgur.com/4PJa1F0.gif",
    "https://i.imgur.com/5qyCl8A.gif",
    "https://i.imgur.com/gdQgeOX.gif",
    "https://i.imgur.com/0Uj3VSU.gif",
    "https://i.imgur.com/kUHL1ca.gif",
    "https://i.imgur.com/geFNw07.gif",
    "https://i.imgur.com/W6icDyh.gif",
    "https://i.imgur.com/HXakcyl.gif"
    ],
    "hugarray": [
    "https://i.imgur.com/zmD97fg.gif",
    "https://i.imgur.com/k9y9ZRz.gif",
    "https://i.imgur.com/1GfZjPk.gif",
    "https://i.imgur.com/6pvuIgQ.gif",
    "https://i.imgur.com/QZGyajy.gif",
    "https://i.imgur.com/RVGH2Qo.gif",
    "https://i.imgur.com/eyRLCtG.gif",
    "https://i.imgur.com/E26XhcC.gif",
    "https://i.imgur.com/rrT3aMW.gif",
    "https://i.imgur.com/SdFDQxT.gif",
    "https://i.imgur.com/dUPbmCr.gif",
    "https://i.imgur.com/jGhX6nt.gif",
    "https://i.imgur.com/4XG8dzC.gif",
    "https://i.imgur.com/8V6gkxU.gif",
    "https://i.imgur.com/2jeFgim.gif"
    ],
    "memearray": [
    "https://i.imgur.com/zoGgG4z.jpg",
    "https://i.imgur.com/8CXqjlt.jpg",
    "https://i.imgur.com/uGQi76u.jpg",
    "https://i.imgur.com/NBYMU3t.jpg",
    "https://i.imgur.com/xsOEVPr.jpg"
    ]
}